Roving Diver Disease Surveys
…
rd.site$MonthYear <- as.factor(rd.site$MonthYear)
rd.site$MonthYear = factor(rd.site$MonthYear, levels(rd.site$MonthYear)[c(10, 12, 3, 5,7,9,11,13,1,2,4,6,8)])

Checking to see that we have our earliest date head(rd.site) and our cut-off date tail(rd.site) to confirm the subset worked. 

Tabulating Data

Currently the data set has very high resolution, to species level, which may not be necessary for certain reports. Now, using dplyr we will tabulate the data into a more concise form. In this example we are assuming that we need to report on data from the time frame we subsetted earlier (November 2017 - June 2019), and the report only needs to know prevalence data by Location Sometimes packages mask other packages so I am specifying that I want to use the function select from the package dplyr by using the following: dplyr::select.

locationData <- rd.site %>% dplyr::select(c(SiteCode, Location, County, MonthYear, SpeciesCode, SCTLD, TotalObservations)) %>%  group_by(SiteCode, MonthYear, Location) %>% summarise_if(is.integer, sum)
locationData

## # A tibble: 60 x 5
## # Groups:   SiteCode, MonthYear [60]
##    SiteCode MonthYear Location SCTLD TotalObservations
##    <chr>    <fct>     <chr>    <int>             <int>
##  1 BC1      11-18     LBTS        26               236
##  2 BC1      12-18     LBTS        23               315
##  3 BC1      03-19     LBTS         6               154
##  4 BC1      06-19     LBTS        16               307
##  5 FTL4     11-18     LBTS         9                65
##  6 FTL4     03-19     LBTS         6                95
##  7 FTL4     05-19     LBTS         7               128
##  8 FTL4     06-19     LBTS         5               118
##  9 SEFL01   11-17     SLR         11                46
## 10 SEFL02   11-17     SLR          3                10
## # ... with 50 more rows
…
